Tidy data reshaping & summaries
…
class: inverse, middle, center
name: pivots

# pivots

---

```r
penguins |> 
  pivot_longer(contains("_")) 
```

```
## # A tibble: 1,376 × 6
##    species island    sex     year name     value
##    <fct>   <fct>     <fct>  <int> <chr>    <dbl>
##  1 Adelie  Torgersen male    2007 bill_l…   39.1
##  2 Adelie  Torgersen male    2007 bill_d…   18.7
##  3 Adelie  Torgersen male    2007 flippe…  181  
##  4 Adelie  Torgersen male    2007 body_m… 3750  
##  5 Adelie  Torgersen female  2007 bill_l…   39.5
##  6 Adelie  Torgersen female  2007 bill_d…   17.4
##  7 Adelie  Torgersen female  2007 flippe…  186  
##  8 Adelie  Torgersen female  2007 body_m… 3800  
##  9 Adelie  Torgersen female  2007 bill_l…   40.3
## 10 Adelie  Torgersen female  2007 bill_d…   18  
## # … with 1,366 more rows
```

---

```r
penguins |> 
  pivot_longer(contains("_"), # select the columns
               names_to = c("body_part", "measure", "unit"), # break them into these columns
               names_sep = "_") # break the column names on this character
```

```
## # A tibble: 1,376 × 8
##    species island    sex    year body_…¹ measure
##    <fct>   <fct>     <fct> <int> <chr>   <chr>  
##  1 Adelie  Torgersen male   2007 bill    length 
##  2 Adelie  Torgersen male   2007 bill    depth  
##  3 Adelie  Torgersen male   2007 flipper length 
##  4 Adelie  Torgersen male   2007 body    mass   
##  5 Adelie  Torgersen fema…  2007 bill    length 
##  6 Adelie  Torgersen fema…  2007 bill    depth  
##  7 Adelie  Torgersen fema…  2007 flipper length 
##  8 Adelie  Torgersen fema…  2007 body    mass   
##  9 Adelie  Torgersen fema…  2007 bill    length 
## 10 Adelie  Torgersen fema…  2007 bill    depth  
## # … with 1,366 more rows, 2 more variables:
## #   unit <chr>, value <dbl>, and abbreviated
## #   variable name ¹​body_part
```
…
penguins_long |> 
  pivot_wider(names_from = c("body_part", "measure", "unit"), # pivot these columns
              values_from = "value", # take the values from here
              names_sep = "_") # separate names_from with this character
```

```
## # A tibble: 35 × 8
##    species island    sex    year bill_…¹ bill_…²
##    <fct>   <fct>     <fct> <int> <list>  <list> 
##  1 Adelie  Torgersen male   2007 <dbl>   <dbl>  
##  2 Adelie  Torgersen fema…  2007 <dbl>   <dbl>  
##  3 Adelie  Torgersen <NA>   2007 <dbl>   <dbl>  
##  4 Adelie  Biscoe    fema…  2007 <dbl>   <dbl>  
##  5 Adelie  Biscoe    male   2007 <dbl>   <dbl>  
##  6 Adelie  Dream     fema…  2007 <dbl>   <dbl>  
##  7 Adelie  Dream     male   2007 <dbl>   <dbl>  
##  8 Adelie  Dream     <NA>   2007 <dbl>   <dbl>  
##  9 Adelie  Biscoe    fema…  2008 <dbl>   <dbl>  
## 10 Adelie  Biscoe    male   2008 <dbl>   <dbl>  
## # … with 25 more rows, 2 more variables:
## #   flipper_length_mm <list>,
## #   body_mass_g <list>, and abbreviated
## #   variable names ¹​bill_length_mm,
## #   ²​bill_depth_mm
```
…
---

```r
model_penguins |> 
  unnest(data)
```

```
## # A tibble: 344 × 10
## # Groups:   species, island [5]
##    species island bill_length_mm bill_…¹ flipp…²
##    <fct>   <fct>           <dbl>   <dbl>   <int>
##  1 Adelie  Biscoe           37.8    18.3     174
##  2 Adelie  Biscoe           37.7    18.7     180
##  3 Adelie  Biscoe           35.9    19.2     189
##  4 Adelie  Biscoe           38.2    18.1     185
##  5 Adelie  Biscoe           38.8    17.2     180
##  6 Adelie  Biscoe           35.3    18.9     187
##  7 Adelie  Biscoe           40.6    18.6     183
##  8 Adelie  Biscoe           40.5    17.9     187
##  9 Adelie  Biscoe           37.9    18.6     172
## 10 Adelie  Biscoe           40.5    18.9     180
## # … with 334 more rows, 5 more variables:
## #   body_mass_g <int>, sex <fct>, year <int>,
## #   lm_model <list>, table <list>, and
## #   abbreviated variable names ¹​bill_depth_mm,
## #   ²​flipper_length_mm
```
…
