Tidy data reshaping & summaries
…
## Pivoting longer

takes tidy-select column arguments, so it is easy to grab all the columns you are after.

```r
penguins |> 
  pivot_longer(contains("_")) 
```

```
## # A tibble: 1,376 × 6
##    species island    sex     year name     value
##    <fct>   <fct>     <fct>  <int> <chr>    <dbl>
##  1 Adelie  Torgersen male    2007 bill_l…   39.1
##  2 Adelie  Torgersen male    2007 bill_d…   18.7
##  3 Adelie  Torgersen male    2007 flippe…  181  
##  4 Adelie  Torgersen male    2007 body_m… 3750  
##  5 Adelie  Torgersen female  2007 bill_l…   39.5
##  6 Adelie  Torgersen female  2007 bill_d…   17.4
##  7 Adelie  Torgersen female  2007 flippe…  186  
##  8 Adelie  Torgersen female  2007 body_m… 3800  
##  9 Adelie  Torgersen female  2007 bill_l…   40.3
## 10 Adelie  Torgersen female  2007 bill_d…   18  
## # … with 1,366 more rows
```
…
penguins_long |> 
  pivot_wider(names_from = c("body_part", "measure", "unit"), # pivot these columns
              values_from = "value", # take the values from here
              names_sep = "_") # separate names_from with this character
```

```
## # A tibble: 344 × 9
##    species island    sex     year    id bill_l…¹
##    <fct>   <fct>     <fct>  <int> <int>    <dbl>
##  1 Adelie  Torgersen male    2007     1     39.1
##  2 Adelie  Torgersen female  2007     2     39.5
##  3 Adelie  Torgersen female  2007     3     40.3
##  4 Adelie  Torgersen <NA>    2007     4     NA  
##  5 Adelie  Torgersen female  2007     5     36.7
##  6 Adelie  Torgersen male    2007     6     39.3
##  7 Adelie  Torgersen female  2007     7     38.9
##  8 Adelie  Torgersen male    2007     8     39.2
##  9 Adelie  Torgersen <NA>    2007     9     34.1
## 10 Adelie  Torgersen <NA>    2007    10     42  
## # … with 334 more rows, 3 more variables:
## #   bill_depth_mm <dbl>,
## #   flipper_length_mm <dbl>, body_mass_g <dbl>,
## #   and abbreviated variable name
## #   ¹​bill_length_mm
```
…
