Tidy data wrangling
…
---
background-image: url(img/dplyr.png)
background-size: 8%
background-position: 95% 5%

## filter use

```r
filter(penguins, bill_length_mm > 40)
```

```
## # A tibble: 242 x 8
##    species island bill_length_mm bill_depth_mm flipper_length_… body_mass_g
##    <fct>   <fct>           <dbl>         <dbl>            <int>       <int>
##  1 Adelie  Torge…           40.3          18                195        3250
##  2 Adelie  Torge…           42            20.2              190        4250
##  3 Adelie  Torge…           41.1          17.6              182        3200
##  4 Adelie  Torge…           42.5          20.7              197        4500
##  5 Adelie  Torge…           46            21.5              194        4200
##  6 Adelie  Biscoe           40.6          18.6              183        3550
##  7 Adelie  Biscoe           40.5          17.9              187        3200
##  8 Adelie  Biscoe           40.5          18.9              180        3950
##  9 Adelie  Dream            40.9          18.9              184        3900
## 10 Adelie  Dream            42.2          18.5              180        3550
## # … with 232 more rows, and 2 more variables: sex <fct>, year <int>
```

---
background-image: url(img/dplyr.png)
background-size: 8%
background-position: 95% 5%

## filter use

```r
filter(penguins, sex == "female")
```

```
## # A tibble: 165 x 8
##    species island bill_length_mm bill_depth_mm flipper_length_… body_mass_g
##    <fct>   <fct>           <dbl>         <dbl>            <int>       <int>
##  1 Adelie  Torge…           39.5          17.4              186        3800
##  2 Adelie  Torge…           40.3          18                195        3250
##  3 Adelie  Torge…           36.7          19.3              193        3450
##  4 Adelie  Torge…           38.9          17.8              181        3625
##  5 Adelie  Torge…           41.1          17.6              182        3200
##  6 Adelie  Torge…           36.6          17.8              185        3700
##  7 Adelie  Torge…           38.7          19                195        3450
##  8 Adelie  Torge…           34.4          18.4              184        3325
##  9 Adelie  Biscoe           37.8          18.3              174        3400
## 10 Adelie  Biscoe           35.9          19.2              189        3800
## # … with 155 more rows, and 2 more variables: sex <fct>, year <int>
```

---
background-image: url(img/dplyr.png)
background-size: 8%
background-position: 95% 5%

## filter use

```r
filter(penguins, !is.na(sex) )
```

```
## # A tibble: 333 x 8
##    species island bill_length_mm bill_depth_mm flipper_length_… body_mass_g
##    <fct>   <fct>           <dbl>         <dbl>            <int>       <int>
##  1 Adelie  Torge…           39.1          18.7              181        3750
##  2 Adelie  Torge…           39.5          17.4              186        3800
##  3 Adelie  Torge…           40.3          18                195        3250
##  4 Adelie  Torge…           36.7          19.3              193        3450
##  5 Adelie  Torge…           39.3          20.6              190        3650
##  6 Adelie  Torge…           38.9          17.8              181        3625
##  7 Adelie  Torge…           39.2          19.6              195        4675
##  8 Adelie  Torge…           41.1          17.6              182        3200
##  9 Adelie  Torge…           38.6          21.2              191        3800
## 10 Adelie  Torge…           34.6          21.1              198        4400
## # … with 323 more rows, and 2 more variables: sex <fct>, year <int>
```

---
background-image: url(img/dplyr.png)
background-size: 8%
background-position: 95% 5%

## filter use

```r
filter(penguins, !is.na(sex), bill_length_mm > 40)
```

```
## # A tibble: 237 x 8
##    species island bill_length_mm bill_depth_mm flipper_length_… body_mass_g
##    <fct>   <fct>           <dbl>         <dbl>            <int>       <int>
##  1 Adelie  Torge…           40.3          18                195        3250
##  2 Adelie  Torge…           41.1          17.6              182        3200
##  3 Adelie  Torge…           42.5          20.7              197        4500
##  4 Adelie  Torge…           46            21.5              194        4200
##  5 Adelie  Biscoe           40.6          18.6              183        3550
##  6 Adelie  Biscoe           40.5          17.9              187        3200
##  7 Adelie  Biscoe           40.5          18.9              180        3950
##  8 Adelie  Dream            40.9          18.9              184        3900
##  9 Adelie  Dream            42.2          18.5              180        3550
## 10 Adelie  Dream            40.8          18.4              195        3900
## # … with 227 more rows, and 2 more variables: sex <fct>, year <int>
```
…
---
background-image: url(img/dplyr.png)
background-size: 8%
background-position: 95% 5%

## select use

```r
select(penguins, species, island, ends_with("mm"))
```

```
## # A tibble: 344 x 5
##    species island    bill_length_mm bill_depth_mm flipper_length_mm
##    <fct>   <fct>              <dbl>         <dbl>             <int>
##  1 Adelie  Torgersen           39.1          18.7               181
##  2 Adelie  Torgersen           39.5          17.4               186
##  3 Adelie  Torgersen           40.3          18                 195
##  4 Adelie  Torgersen           NA            NA                  NA
##  5 Adelie  Torgersen           36.7          19.3               193
##  6 Adelie  Torgersen           39.3          20.6               190
##  7 Adelie  Torgersen           38.9          17.8               181
##  8 Adelie  Torgersen           39.2          19.6               195
##  9 Adelie  Torgersen           34.1          18.1               193
## 10 Adelie  Torgersen           42            20.2               190
## # … with 334 more rows
```

---
background-image: url(img/dplyr.png)
background-size: 8%
background-position: 95% 5%

## select use

```r
select(penguins, species, island, starts_with("bill"))
```

```
## # A tibble: 344 x 4
##    species island    bill_length_mm bill_depth_mm
##    <fct>   <fct>              <dbl>         <dbl>
##  1 Adelie  Torgersen           39.1          18.7
##  2 Adelie  Torgersen           39.5          17.4
##  3 Adelie  Torgersen           40.3          18  
##  4 Adelie  Torgersen           NA            NA  
##  5 Adelie  Torgersen           36.7          19.3
##  6 Adelie  Torgersen           39.3          20.6
##  7 Adelie  Torgersen           38.9          17.8
##  8 Adelie  Torgersen           39.2          19.6
##  9 Adelie  Torgersen           34.1          18.1
## 10 Adelie  Torgersen           42            20.2
## # … with 334 more rows
```

---
background-image: url(img/dplyr.png)
background-size: 8%
background-position: 95% 5%

## select use

```r
select(penguins, species, island, year, starts_with("bill"))
```

```
## # A tibble: 344 x 5
##    species island     year bill_length_mm bill_depth_mm
##    <fct>   <fct>     <int>          <dbl>         <dbl>
##  1 Adelie  Torgersen  2007           39.1          18.7
##  2 Adelie  Torgersen  2007           39.5          17.4
##  3 Adelie  Torgersen  2007           40.3          18  
##  4 Adelie  Torgersen  2007           NA            NA  
##  5 Adelie  Torgersen  2007           36.7          19.3
##  6 Adelie  Torgersen  2007           39.3          20.6
##  7 Adelie  Torgersen  2007           38.9          17.8
##  8 Adelie  Torgersen  2007           39.2          19.6
##  9 Adelie  Torgersen  2007           34.1          18.1
## 10 Adelie  Torgersen  2007           42            20.2
## # … with 334 more rows
```

---
background-image: url(img/dplyr.png)
background-size: 8%
background-position: 95% 5%

## select use

```r
select(penguins, species, island, year, !starts_with("bill"))
```

```
## # A tibble: 344 x 6
##    species island     year flipper_length_mm body_mass_g sex   
##    <fct>   <fct>     <int>             <int>       <int> <fct> 
##  1 Adelie  Torgersen  2007               181        3750 male  
##  2 Adelie  Torgersen  2007               186        3800 female
##  3 Adelie  Torgersen  2007               195        3250 female
##  4 Adelie  Torgersen  2007                NA          NA <NA>  
##  5 Adelie  Torgersen  2007               193        3450 female
##  6 Adelie  Torgersen  2007               190        3650 male  
##  7 Adelie  Torgersen  2007               181        3625 female
##  8 Adelie  Torgersen  2007               195        4675 male  
##  9 Adelie  Torgersen  2007               193        3475 <NA>  
## 10 Adelie  Torgersen  2007               190        4250 <NA>  
## # … with 334 more rows
```
…
```r
# piped
penguins %>% 
  select(species, island, ends_with("mm"))
```
]

.pull-right[

```
## # A tibble: 344 x 5
##    species island    bill_length_mm bill_depth_mm flipper_length_mm
##    <fct>   <fct>              <dbl>         <dbl>             <int>
##  1 Adelie  Torgersen           39.1          18.7               181
##  2 Adelie  Torgersen           39.5          17.4               186
##  3 Adelie  Torgersen           40.3          18                 195
##  4 Adelie  Torgersen           NA            NA                  NA
##  5 Adelie  Torgersen           36.7          19.3               193
##  6 Adelie  Torgersen           39.3          20.6               190
##  7 Adelie  Torgersen           38.9          17.8               181
##  8 Adelie  Torgersen           39.2          19.6               195
##  9 Adelie  Torgersen           34.1          18.1               193
## 10 Adelie  Torgersen           42            20.2               190
## # … with 334 more rows
```
…
.pull-left[

```r
penguins %>% 
  select(species, island, 
         starts_with("bill")) %>% 
  filter(island == "Dream")
```

]

.pull-right[

```
## # A tibble: 124 x 4
##    species island bill_length_mm bill_depth_mm
##    <fct>   <fct>           <dbl>         <dbl>
##  1 Adelie  Dream            39.5          16.7
##  2 Adelie  Dream            37.2          18.1
##  3 Adelie  Dream            39.5          17.8
##  4 Adelie  Dream            40.9          18.9
##  5 Adelie  Dream            36.4          17  
##  6 Adelie  Dream            39.2          21.1
##  7 Adelie  Dream            38.8          20  
##  8 Adelie  Dream            42.2          18.5
##  9 Adelie  Dream            37.6          19.3
## 10 Adelie  Dream            39.8          19.1
## # … with 114 more rows
```
…
---
background-image: url(img/dplyr.png)
background-size: 8%
background-position: 95% 5%

## Adding new variables

```r
penguins %>% 
  mutate( new_column = 1,
    bill_ld_ratio = bill_length_mm/bill_depth_mm)
```

```
## # A tibble: 344 x 10
##    species island bill_length_mm bill_depth_mm flipper_length_… body_mass_g
##    <fct>   <fct>           <dbl>         <dbl>            <int>       <int>
##  1 Adelie  Torge…           39.1          18.7              181        3750
##  2 Adelie  Torge…           39.5          17.4              186        3800
##  3 Adelie  Torge…           40.3          18                195        3250
##  4 Adelie  Torge…           NA            NA                 NA          NA
##  5 Adelie  Torge…           36.7          19.3              193        3450
##  6 Adelie  Torge…           39.3          20.6              190        3650
##  7 Adelie  Torge…           38.9          17.8              181        3625
##  8 Adelie  Torge…           39.2          19.6              195        4675
##  9 Adelie  Torge…           34.1          18.1              193        3475
## 10 Adelie  Torge…           42            20.2              190        4250
## # … with 334 more rows, and 4 more variables: sex <fct>, year <int>,
## #   new_column <dbl>, bill_ld_ratio <dbl>
```

---
background-image: url(img/dplyr.png)
background-size: 8%
background-position: 95% 5%

## dplyr - across many columns 

```r
penguins %>% mutate(across(ends_with("mm"), ~ .x/10))
```

```
## # A tibble: 344 x 8
##    species island bill_length_mm bill_depth_mm flipper_length_… body_mass_g
##    <fct>   <fct>           <dbl>         <dbl>            <dbl>       <int>
##  1 Adelie  Torge…           3.91          1.87             18.1        3750
##  2 Adelie  Torge…           3.95          1.74             18.6        3800
##  3 Adelie  Torge…           4.03          1.8              19.5        3250
##  4 Adelie  Torge…          NA            NA                NA            NA
##  5 Adelie  Torge…           3.67          1.93             19.3        3450
##  6 Adelie  Torge…           3.93          2.06             19          3650
##  7 Adelie  Torge…           3.89          1.78             18.1        3625
##  8 Adelie  Torge…           3.92          1.96             19.5        4675
##  9 Adelie  Torge…           3.41          1.81             19.3        3475
## 10 Adelie  Torge…           4.2           2.02             19          4250
## # … with 334 more rows, and 2 more variables: sex <fct>, year <int>
```
…
## dplyr - across many columns 

```r
penguins %>% mutate(across(ends_with("mm"), ~ .x/10, 
*                          .names = "{str_replace(.col, 'mm', 'cm')}")
                    ) %>% 
  select(1:3, contains("bill"))
```

```
## # A tibble: 344 x 6
##    species island    bill_length_mm bill_depth_mm bill_length_cm bill_depth_cm
##    <fct>   <fct>              <dbl>         <dbl>          <dbl>         <dbl>
##  1 Adelie  Torgersen           39.1          18.7           3.91          1.87
##  2 Adelie  Torgersen           39.5          17.4           3.95          1.74
##  3 Adelie  Torgersen           40.3          18             4.03          1.8 
##  4 Adelie  Torgersen           NA            NA            NA            NA   
##  5 Adelie  Torgersen           36.7          19.3           3.67          1.93
##  6 Adelie  Torgersen           39.3          20.6           3.93          2.06
##  7 Adelie  Torgersen           38.9          17.8           3.89          1.78
##  8 Adelie  Torgersen           39.2          19.6           3.92          1.96
##  9 Adelie  Torgersen           34.1          18.1           3.41          1.81
## 10 Adelie  Torgersen           42            20.2           4.2           2.02
## # … with 334 more rows
```
…
## dplyr - grouped

```r
penguins %>% 
  group_by(species) %>% 
  mutate(
*   bill_length_sp_max = max(bill_length_mm, na.rm = TRUE),
*   bill_length_pc = (bill_length_mm/bill_length_sp_max)*100
    ) %>% 
  select(1:3, contains("bill"))
```

```
## # A tibble: 344 x 6
## # Groups:   species [3]
##    species island   bill_length_mm bill_depth_mm bill_length_sp_… bill_length_pc
##    <fct>   <fct>             <dbl>         <dbl>            <dbl>          <dbl>
##  1 Adelie  Torgers…           39.1          18.7               46           85  
##  2 Adelie  Torgers…           39.5          17.4               46           85.9
##  3 Adelie  Torgers…           40.3          18                 46           87.6
##  4 Adelie  Torgers…           NA            NA                 46           NA  
##  5 Adelie  Torgers…           36.7          19.3               46           79.8
##  6 Adelie  Torgers…           39.3          20.6               46           85.4
##  7 Adelie  Torgers…           38.9          17.8               46           84.6
##  8 Adelie  Torgers…           39.2          19.6               46           85.2
##  9 Adelie  Torgers…           34.1          18.1               46           74.1
## 10 Adelie  Torgers…           42            20.2               46           91.3
## # … with 334 more rows
```
…
