Tidy data reshaping & summaries
…
---

class: inverse, middle, center

# pivots

---

```r
penguins %>% 
  pivot_longer(contains("_")) 
```

```
## # A tibble: 1,376 x 6
##    species island    sex     year name               value
##    <fct>   <fct>     <fct>  <int> <chr>              <dbl>
##  1 Adelie  Torgersen male    2007 bill_length_mm      39.1
##  2 Adelie  Torgersen male    2007 bill_depth_mm       18.7
##  3 Adelie  Torgersen male    2007 flipper_length_mm  181  
##  4 Adelie  Torgersen male    2007 body_mass_g       3750  
##  5 Adelie  Torgersen female  2007 bill_length_mm      39.5
##  6 Adelie  Torgersen female  2007 bill_depth_mm       17.4
##  7 Adelie  Torgersen female  2007 flipper_length_mm  186  
##  8 Adelie  Torgersen female  2007 body_mass_g       3800  
##  9 Adelie  Torgersen female  2007 bill_length_mm      40.3
## 10 Adelie  Torgersen female  2007 bill_depth_mm       18  
## # … with 1,366 more rows
```

---

```r
penguins %>% 
  pivot_longer(contains("_"), # select the columns
               names_to = c("body_part", "measure", "unit"), # break them into these columns
               names_sep = "_") # break the column names on this character
```

```
## # A tibble: 1,376 x 8
##    species island    sex     year body_part measure unit   value
##    <fct>   <fct>     <fct>  <int> <chr>     <chr>   <chr>  <dbl>
##  1 Adelie  Torgersen male    2007 bill      length  mm      39.1
##  2 Adelie  Torgersen male    2007 bill      depth   mm      18.7
##  3 Adelie  Torgersen male    2007 flipper   length  mm     181  
##  4 Adelie  Torgersen male    2007 body      mass    g     3750  
##  5 Adelie  Torgersen female  2007 bill      length  mm      39.5
##  6 Adelie  Torgersen female  2007 bill      depth   mm      17.4
##  7 Adelie  Torgersen female  2007 flipper   length  mm     186  
##  8 Adelie  Torgersen female  2007 body      mass    g     3800  
##  9 Adelie  Torgersen female  2007 bill      length  mm      40.3
## 10 Adelie  Torgersen female  2007 bill      depth   mm      18  
## # … with 1,366 more rows
```
…
penguins_long %>% 
  pivot_wider(names_from = c("body_part", "measure", "unit"), # pivot these columns
              values_from = "value", # take the values from here
              names_sep = "_") # separate names_from with this character
```

```
## # A tibble: 35 x 8
##    species island sex    year bill_length_mm bill_depth_mm flipper_length_…
##    <fct>   <fct>  <fct> <int> <list>         <list>        <list>          
##  1 Adelie  Torge… male   2007 <dbl [7]>      <dbl [7]>     <dbl [7]>       
##  2 Adelie  Torge… fema…  2007 <dbl [8]>      <dbl [8]>     <dbl [8]>       
##  3 Adelie  Torge… <NA>   2007 <dbl [5]>      <dbl [5]>     <dbl [5]>       
##  4 Adelie  Biscoe fema…  2007 <dbl [5]>      <dbl [5]>     <dbl [5]>       
##  5 Adelie  Biscoe male   2007 <dbl [5]>      <dbl [5]>     <dbl [5]>       
##  6 Adelie  Dream  fema…  2007 <dbl [9]>      <dbl [9]>     <dbl [9]>       
##  7 Adelie  Dream  male   2007 <dbl [10]>     <dbl [10]>    <dbl [10]>      
##  8 Adelie  Dream  <NA>   2007 <dbl [1]>      <dbl [1]>     <dbl [1]>       
##  9 Adelie  Biscoe fema…  2008 <dbl [9]>      <dbl [9]>     <dbl [9]>       
## 10 Adelie  Biscoe male   2008 <dbl [9]>      <dbl [9]>     <dbl [9]>       
## # … with 25 more rows, and 1 more variable: body_mass_g <list>
```
…
---

```r
model_penguins %>% 
  unnest(data)
```

```
## # A tibble: 344 x 10
## # Groups:   species, island [5]
##    species island bill_length_mm bill_depth_mm flipper_length_… body_mass_g
##    <fct>   <fct>           <dbl>         <dbl>            <int>       <int>
##  1 Adelie  Biscoe           37.8          18.3              174        3400
##  2 Adelie  Biscoe           37.7          18.7              180        3600
##  3 Adelie  Biscoe           35.9          19.2              189        3800
##  4 Adelie  Biscoe           38.2          18.1              185        3950
##  5 Adelie  Biscoe           38.8          17.2              180        3800
##  6 Adelie  Biscoe           35.3          18.9              187        3800
##  7 Adelie  Biscoe           40.6          18.6              183        3550
##  8 Adelie  Biscoe           40.5          17.9              187        3200
##  9 Adelie  Biscoe           37.9          18.6              172        3150
## 10 Adelie  Biscoe           40.5          18.9              180        3950
## # … with 334 more rows, and 4 more variables: sex <fct>, year <int>,
## #   lm_model <list>, table <list>
```
…
